330304 442105
552773 320033
127728 516578
711422 103738
205400 94311
327458 311949
903817 616169
991427 551086
146727 449395
787086 544245
58046 562881
590647 748857
758109 380662
680362 683516
643081 462923
331334 276817
348748 931356
258103 865534
414495 402231
977828 1284
806915 499869
925533 944770
625549 56292
19284 279967
282994 316358
203910 818356
111694 482258
613554 808455
856690 478163
713472 920079
105906 801684
768063 335393
777120 734602
439666 807945
151797 444690
826654 746319
96287 466086
930740 485217
732237 111520
149559 363762
945721 580516
197216 231722
166352 392258
548365 981756
678355 793299
821132 814688
425094 388075
583745 526967
472589 372919
309127 678361
499195 176232
625950 466697
291755 729703
898198 526190
102793 370111
142686 566344
499665 741333
481378 583063
134878 752900
778722 533155
949740 129873
422200 859695
533113 923332
446789 603782
781360 510308
884054 178919
66621 807455
271266 804221
506982 216936
156989 702220
603218 267081
925006 287707
69999 894902
272176 613406
269394 92365
348024 987833
842136 343906
436052 826772
62748 139675
653124 334956
220435 913243
770539 220031
19056 339121
986512 558245
213245 122987
494787 223113
93381 323920
957570 378182
401574 491068
570479 487750
614837 113277
727918 342079
230449 81736
853204 316570
922978 485557
131115 663134
883652 313037
702469 602403
179738 943425
421751 621811
637607 314311
999457 763343
145884 433284
487699 404671
149252 377880
213693 148740
168009 871623
102004 107683
798152 431375
285775 500767
506220 421273
319285 707104
624916 750617
19572 142281
461099 903847
988645 998029
236924 629780
412494 120015
391671 732352
802300 218815
362472 464850
358484 995591
335625 364579
797819 143030
863869 313681
822229 406896
728996 457190
849136 374880
885903 158311
182542 345857
217487 219565
193147 583623
363309 477822
60262 605020
787594 662256
545804 826862
718443 575627
115140 277745
363116 990936
142733 718759
800697 951730
127483 314924
293367 757677
549472 860738
993652 149023
874813 42100
681879 692756
602651 37124
379412 405087
75296 830439
928850 637259
746686 739742
562181 654435
267830 752179
721260 252230
870906 709189
77664 33081
678191 580347
875306 841278
664978 305174
940679 346779
437899 733263
565279 141978
11439 136797
235789 603551
75190 800444
449703 554384
538941 60573
934876 169776
974248 315997
161106 293362
133032 981794
8287 115724
545435 267959
494895 911101
685134 627993
238133 86577
337461 890220
495373 777403
51249 282995
569264 898626
772984 294950
77693 482475
16937 761256
999784 366897
930781 986447
691404 539931
472775 871511
376945 72497
361317 518938
679736 156931
271749 300524
912264 109201
936961 175139
524852 550594
986733 28209
777774 457408
379345 722896
712174 402507
825607 424198
934031 321902
808657 429713
240227 866754
611565 67408
49965 948845
254619 468594
771499 530702
44480 147312
147869 31856
215437 688656
747580 430502
303432 802416
912913 440532
567459 1683
90579 259074
629506 934161
328446 722979
810441 896285
266559 230706
208483 960890
440791 791961
381909 665043
278316 256601
694962 710783
17261 834934
63131 308387
511828 933639
826937 827867
763866 283821
151677 933366
741678 343685
343563 606906
17341 404576
529030 362031
243386 206074
46896 249712
880283 524013
565218 942869
824914 529018
199730 914736
338061 382013
821048 574906
533969 188319
642640 318810
996384 341967
734582 146761
129532 604742
572006 968358
652994 941775
220639 94883
13213 966457
488689 618938
700013 967101
732970 260629
153761 127241
290427 56351
177655 29236
710323 985573
28648 290940
386067 736712
265367 102383
116025 565797
383718 921594
894759 181955
478900 395399
604238 911508
976579 428011
335485 962862
400010 419155
93896 786722
288860 734561
491002 378234
451579 614112
346198 455055
403028 720542
263890 464485
792938 997805
999000 481661
137059 956866
969790 83239
904935 108945
157263 546533
322022 241066
183015 916047
111140 958236
160196 29271
910630 550976
738936 678375
530109 591682
525816 944523
921622 265727
15924 353199
780737 967469
365858 597000
68495 419865
118082 217508
