68104 613828
79796 973397
142373 262632
737998 512526
37057 209289
782200 584218
306886 164778
404090 648620
542187 196936
237521 329413
559284 474949
172304 171034
795521 963899
744042 531817
492253 337805
70052 843364
365897 590386
355990 853202
970770 925651
250551 280055
619956 886441
408164 582056
48874 29796
979897 216689
434738 578454
884298 889559
668977 250924
509923 66295
555885 279178
116617 734929
968276 702784
881707 859642
777250 698611
772049 446139
66105 320768
189364 822099
392377 883144
945127 310169
803693 435185
528146 205839
236277 878032
991231 550785
566643 835136
434702 197232
741704 644088
958530 287986
134215 507901
487879 803959
878971 34409
44411 570965
352586 166523
169985 312488
942735 703736
28517 834813
887925 853666
848742 769106
700728 409585
31653 400192
37884 527287
812673 601407
232952 943548
442345 350559
10363 145869
436931 157089
451038 608874
138336 967488
255671 363922
190454 595488
691329 975176
280632 12803
206721 233570
124722 728811
985339 223682
245156 364992
297516 258061
743191 160353
63801 947748
964806 714517
777220 266123
768040 668632
585639 884189
66524 58173
465643 239517
672960 630388
416548 667359
545572 936513
585414 269343
100048 276081
323268 505014
591550 896095
189859 513443
212717 469977
610457 678357
62728 880651
638198 551600
976504 478828
865047 810954
122643 975588
761886 612873
76699 728848
8437 534241
164212 896246
267450 564899
718740 982996
704102 56284
729151 700478
240036 687980
263041 230396
933346 943695
537045 79794
587536 735627
321039 239948
768524 755396
737382 514208
806426 5739
313343 528931
160024 553745
862727 397073
36433 318883
403172 750189
66102 309633
700850 662932
679174 497166
113600 66422
516469 873027
947774 624785
130894 415386
297534 475879
635086 650165
255995 862653
939685 571588
800645 78150
886064 880861
856811 645417
284322 717435
969832 523641
669340 937440
867372 873487
884813 773608
189916 734650
185864 920174
85561 255064
835982 123660
843957 467667
548564 389922
134841 117920
859735 866426
918792 613908
612184 724456
248562 384695
26289 596589
365722 99566
850141 205186
47947 354712
944162 145167
164915 883552
548710 921703
422169 899045
793001 707134
948506 650902
893446 372594
298244 286276
594820 53818
977718 316609
362803 499620
129754 151221
681249 9355
416662 644481
79990 905372
935411 5243
577959 469264
954395 606344
411252 371107
599068 345688
73162 966300
190367 210019
432829 603385
138883 49596
534903 582644
328493 837382
158681 518391
131320 735924
391541 506089
651464 93907
954143 800342
468983 227956
159092 337090
223692 626329
411943 156260
323538 412170
196962 75733
844222 756519
439951 870089
711430 638039
659232 597394
754276 951281
38654 382341
150902 260298
902660 868284
347765 83204
297052 841358
260971 796278
377162 834584
672665 782083
746167 510518
677908 794738
615786 341741
224724 776258
173011 999050
61917 836085
389754 923117
425866 640799
549588 831942
164069 851694
315936 246836
641099 474442
460542 792595
276761 989880
924691 13133
560572 810461
932097 111308
173923 301748
618305 135355
457625 821167
525034 895542
70152 531925
923839 160252
322708 977531
339248 347742
504688 859519
328988 956839
709580 69680
452143 568504
963310 388641
635744 57441
139236 582810
873532 34774
135663 834430
610576 315704
997918 210608
60356 501281
522745 820308
707631 462082
801056 287970
376075 295606
302390 707797
993421 701641
33099 435493
693176 455915
449815 259650
224744 859688
600805 51834
945346 795061
729961 531222
373610 364044
520174 851626
903401 16347
