51608 314978
180905 788611
419800 951286
320242 910908
90840 705719
430199 894963
769031 460137
939511 534264
964571 745486
463143 93749
962274 243683
772509 823711
819757 320220
360380 223018
34151 666935
653642 389173
82548 521863
65087 798481
466353 883779
955651 609065
781058 739511
794119 466109
32022 53700
397369 175459
49155 400020
657281 397915
971314 993780
155676 951813
954812 354897
385441 439610
234677 863291
90350 544940
934714 674985
837734 562470
584358 846532
581138 639648
451498 43115
868269 699169
129168 342973
512222 866420
693233 125771
475008 446903
874337 91177
847068 683467
277133 278905
63635 508519
955478 938074
748593 53269
23186 903191
332329 937283
925617 487824
784178 909394
697834 921065
579897 522004
253140 935252
834194 372495
987340 290698
931825 448663
504185 963247
737526 347027
952157 163946
293534 837526
525216 315702
720804 874991
528775 694761
333402 662483
691926 617858
634783 559122
511698 885533
180225 600991
330982 163450
477583 463689
513640 42382
728741 397505
730050 173749
521902 316999
960038 571489
493591 333735
226022 214503
542127 550026
309384 583663
60635 455856
790548 404909
8783 211826
985561 875625
574229 95080
531927 105201
906446 112287
875798 774124
340865 681110
278174 468425
666477 782489
66563 143833
208931 67224
337897 61870
650077 362763
859206 965540
949098 28756
16253 238337
162646 554938
395138 165013
757868 818924
977664 798089
792142 11424
337539 411456
336800 180946
959234 454288
850912 505510
69804 852764
237624 942059
246220 216765
54765 161309
97593 948823
461642 265466
270372 391600
393727 784297
542936 908025
278450 374453
606570 873722
279804 870611
308806 328868
163278 257572
932577 817526
835128 950850
588654 252231
156482 873842
136372 306199
291097 275427
415956 219728
951980 934170
529538 950422
427100 758866
297034 269949
777351 561231
890905 132633
30530 963719
776594 698076
827327 831995
971165 702697
487871 316585
344480 51942
180738 194810
208405 102840
528135 60247
77683 700145
125868 557845
178709 973178
234471 75659
730672 360257
28815 755408
865383 736300
253123 255994
243610 796116
733900 824482
259358 384217
750558 783983
472492 831640
964374 253730
409875 913976
801520 531316
780459 292325
663476 113653
559769 987195
363549 575214
568912 843860
601772 912529
857649 888497
934914 398609
626018 513467
944553 976984
989971 936478
135334 911960
385087 294904
565830 651500
779095 106248
240481 900090
204873 927967
621416 565125
784600 145168
462085 316400
957281 843255
294191 238141
988464 92047
841606 863272
138709 479681
951166 762161
975826 450790
672154 735008
425793 975217
302974 135455
69563 866623
879715 691680
880504 377147
751880 249009
661857 945506
306921 262847
516292 382645
196657 715806
107649 159717
256362 49172
68873 336075
322977 804579
822855 545258
303869 216636
252906 459627
968562 581045
227627 9136
66728 937207
738803 374474
605054 697731
903108 128454
721860 747558
541027 807353
159401 173860
594993 583769
300005 496097
122995 677191
73823 219833
200656 679442
62966 396282
225757 572882
560610 829772
63843 958566
891467 641807
58041 835912
457809 709969
24448 740116
379154 63832
959482 278583
534107 584059
683981 407783
814686 843885
175117 416828
728930 997525
662292 336999
714884 482237
97562 798239
552971 857033
723143 723308
34699 838252
371846 727264
880344 226506
8492 157116
259641 655470
478722 316551
154029 708623
848068 908603
13440 486956
562063 930603
878975 650484
972447 25072
675026 463520
881832 858368
221776 589825
