165879 616318
252059 509649
413877 84217
441494 171586
245963 686969
916070 84476
43710 707994
574107 939593
319440 351746
773809 558871
972171 236896
864898 294336
629097 181896
446942 736239
82666 92328
45759 936973
331140 464813
490039 839019
886890 756173
337835 263604
888836 785901
90348 799042
451593 850776
5358 390769
561222 222079
664989 605514
988816 664717
925684 592672
887689 738866
231613 203506
669062 419104
331740 629723
318186 335853
292691 694007
442994 114633
896673 707484
254535 848549
581700 108033
173317 821493
774346 683772
346063 938688
655792 466615
688174 972566
786388 538676
111742 866987
408658 729175
177012 655581
54942 782058
364215 700097
814122 75924
161136 247445
821312 546987
409847 496349
465444 344652
479388 356754
439745 147742
326906 186191
703884 95402
803205 530336
137454 49018
949119 312248
795842 217684
822174 665848
393058 878054
549705 166870
373241 687365
342256 44375
319025 692203
864125 906472
725068 653917
285956 918589
796795 980045
791701 961621
881026 808040
42324 294382
468390 600832
334479 531925
342757 702013
312182 694247
512595 847383
448402 894335
501127 761070
834107 896644
440044 787539
965574 573109
64186 954414
746094 244019
703432 165137
895448 299009
845594 450129
941351 436697
453675 393620
170791 512717
726077 843120
582863 519337
560474 820040
327224 762768
200845 895560
994986 58554
910170 593912
153548 294367
717936 360346
183931 452354
222569 458816
474096 517656
686727 42121
396192 149303
158790 266270
935648 246379
351340 305119
422616 865981
118135 274554
540075 930399
725883 140274
121246 631330
855601 993660
344517 222685
314009 34072
707944 603465
486104 540469
169896 730577
388665 22520
301340 197574
308400 324771
632624 457297
494353 15030
984112 964466
425175 509436
597868 960399
854671 217752
839717 855969
327256 405305
767405 419880
90178 211085
75440 882160
336851 722260
326871 454476
671378 324615
613551 695294
18454 619207
418857 188578
777990 391778
768445 575742
141812 554219
699806 309323
185288 288846
700431 414611
903856 126711
374962 168344
935952 345337
75519 213656
84930 362981
397669 465780
88657 943530
964986 433931
94971 106796
943652 331291
729553 465008
853194 297035
307033 653989
790695 193616
872587 923102
651619 918718
856917 227947
307679 980194
975168 841029
110020 981244
691883 930464
791029 862501
308021 910854
658010 317072
203400 646169
318708 317324
160683 817972
798920 241991
935713 116201
397010 28158
758551 957773
943726 207063
110527 512658
840695 91670
855111 188779
288155 8890
921653 237825
936372 135443
29491 716367
487310 223691
396735 411942
744085 328174
303747 316400
439370 447621
411916 825531
695212 369768
285671 288167
408418 814381
147137 507077
259761 530276
55483 849017
264168 599073
723993 261117
933325 815414
619680 894044
238005 938285
603903 725740
438167 188831
606880 256248
930960 371807
489666 245703
784376 678685
727020 80141
536082 413032
679166 817185
428595 149936
287832 644196
518462 65063
691785 915691
323108 479707
759795 714523
800754 486165
164443 771916
41921 781258
293430 636066
678592 832477
743475 429035
766177 153993
925733 390641
11657 103503
224147 735133
49025 948064
297544 512054
977350 572943
870051 820747
550969 461828
878311 548809
822515 661340
896980 143161
115247 823410
562275 419900
467386 42741
685693 18447
796062 356391
387136 633229
968012 934183
730975 946153
3353 541670
190242 866795
570237 706452
146970 193381
266812 520826
