1 1 1
2 2 2
3 3 8
4 4 3
5 5 6
6 6 9
7 7 17
8 8 4
9 9 20
10 10 7
1 5 8
1 6 9
6 10 20
1 10 20
5 8 17
5 9 20
10177 649236 509
847490 262607 525
372263 580509 470
98091 803760 509
477000 430426 444
491711 702414 509
741630 146233 509
258360 195700 443
604682 225514 470
785342 877023 525
355822 743493 509
229639 163914 386
965643 953365 414
74689 499360 449
560341 728738 509
518705 600323 452
912433 729515 525
827194 807597 450
426669 181107 449
251172 193233 443
118844 662124 509
822622 779831 468
699420 676362 442
206082 420546 449
691658 847699 525
551981 622882 447
654355 253685 509
898672 170571 525
128325 167470 383
455117 493640 444
657091 467143 509
179693 525401 470
864311 944987 507
383211 377806 379
240257 672013 509
214017 63762 383
996777 57278 525
120586 412243 449
444595 321069 449
953515 22844 525
633036 842825 525
370278 741239 509
539009 149915 470
667971 555613 509
58475 337540 443
191800 371457 443
947031 382867 525
245700 243804 337
391967 592 443
289017 549627 470
618210 29722 470
170087 998125 525
837474 836987 313
759594 783466 468
24370 900379 525
187347 85847 383
154852 944405 525
509347 561752 470
303613 58400 443
485602 774229 509
729917 27269 509
878532 527708 525
658885 981618 525
786767 823696 468
465551 356505 449
505438 539178 470
221985 444005 449
866842 459559 525
813517 411691 509
970504 352253 525
658599 636593 429
66689 263231 443
758382 17777 509
866271 850848 419
343902 744771 509
591589 614706 403
750306 266630 509
332612 927107 525
892441 366325 525
52653 127075 354
547860 845313 525
644948 321008 509
865345 862744 344
784893 766099 468
15539 678903 509
730644 15672 509
14745 217144 386
365771 767402 509
933033 604273 525
241250 630803 509
260472 49351 443
815225 467799 509
51937 307691 443
999728 795552 525
956309 164772 525
277714 887603 525
222739 452129 449
599170 960253 525
851427 288080 525
105288 399651 443
653841 375029 509
638435 449132 509
548853 579412 421
21007 586812 470
49838 605413 470
42078 354852 443
249535 732822 509
635532 435839 509
150935 767790 509
611926 702870 509
486695 699891 509
939572 289711 525
899147 924773 476
380046 898655 525
302310 312569 384
700868 824511 504
176597 942770 525
655465 660072 429
698389 550479 509
309514 649000 509
515463 4361 470
642079 480025 509
9871 876812 525
847643 737866 525
253635 678268 509
396549 803212 509
932571 721863 525
113184 25652 354
61818 407829 443
773984 686830 504
300626 773 443
556264 105762 470
771778 794282 437
606222 350503 470
579840 558067 421
701304 694646 367
724976 471753 509
299194 337351 384
637961 391422 509
550477 245960 470
664168 610414 509
150552 712297 509
899804 154896 525
535707 283057 470
411127 394042 449
18253 548983 470
313799 816850 509
884953 453461 525
835753 420876 509
556053 196422 470
862888 310201 525
653128 663713 429
891428 832288 525
379935 978389 525
546949 325669 470
122483 104199 354
319220 943711 525
127725 160307 383
653035 329887 509
995625 523457 525
859301 938378 476
359300 232465 441
133432 975950 525
815 967816 525
232159 587338 470
277611 994989 525
965163 959908 414
661112 571233 509
467939 434746 444
722700 211434 509
883893 98316 525
771684 30943 509
569028 512706 452
118363 329506 443
365988 628857 509
459675 689061 509
247539 470692 449
535915 918404 525
66258 911116 525
637980 859103 525
313650 740991 509
624104 427298 470
729617 164958 509
975349 232073 525
525240 385552 470
438216 363961 449
344789 90148 443
839554 64605 525
293344 465872 449
961487 109304 525
594096 760717 509
533981 109005 470
841958 998473 507
758063 132562 509
873069 617136 525
372193 943974 525
319778 950010 525
71245 973522 525
375093 597705 470
824237 795111 468
842328 40037 525
427534 542247 470
583382 380734 470
546833 960922 525
656737 471311 509
532794 774298 509
408489 912958 525
346413 537016 470
271289 685866 509
193845 718802 509
527826 889073 525
460193 47105 449
176015 980219 525
993020 828026 525
649207 350622 509
819880 113583 509
686454 251802 509
824639 750615 468
238956 955091 525
410777 524493 470
168367 313537 443
627261 284144 509
845603 801337 525
794739 922961 525
506152 809703 509
791297 78430 509
530989 480409 470
722578 272232 509
40397 3402 324
986054 804970 525
635937 856523 525
787900 153267 509
574008 526795 452
557727 779877 509
272165 866249 525
966081 328139 525
223995 584543 470
432731 968045 525
927846 795839 525
947176 201266 525
895990 520531 525
748458 391195 509
876341 59436 525
706842 29626 509
757902 318881 509
