32053 49274 324
330911 866601 525
779529 260286 509
46706 950520 525
375940 69643 443
912129 413254 525
235213 690703 509
587037 688744 509
300970 739409 509
474749 698137 509
565038 879632 525
200498 828077 509
572849 595714 434
768820 518234 509
518345 520432 439
340864 458187 449
267193 587464 470
628894 111330 509
48687 20721 324
508641 576620 470
937596 325059 525
912338 312263 525
973560 900257 507
622919 173373 470
655569 82224 509
852798 749743 525
2780 645607 509
16167 394327 443
883681 861688 432
565558 837428 509
226823 119046 386
625699 883885 525
976040 220572 525
698516 415004 509
992988 782113 525
339323 983813 525
906512 629938 525
114827 244817 443
366452 107321 443
323069 872760 525
652096 307352 509
453061 453711 369
453101 179899 449
783214 411875 509
193032 89897 383
139252 849437 525
955804 519274 525
498520 739325 509
661131 849055 525
804748 334338 509
381508 165792 443
247187 479827 449
313414 765901 509
21584 905297 525
591315 668079 509
286127 702279 509
632028 483595 509
328586 613627 470
688348 721830 504
868878 882137 432
891960 587907 525
215662 821166 509
783852 775357 437
47084 321492 443
759522 932046 525
677518 427332 509
652172 411 509
930659 267716 525
445903 700834 509
95294 757333 509
485867 61188 449
30483 94025 351
154044 121958 375
747418 194602 509
165544 894778 525
454345 848386 525
775541 150137 509
501812 816845 509
535134 144924 470
115395 353858 443
530946 887085 525
800192 382660 509
172857 121538 383
508385 428423 444
568024 829763 509
337094 211872 443
716204 311521 509
716124 72893 509
324141 792384 509
859830 742828 525
447860 713315 509
162889 589021 470
750945 723800 424
675580 882421 525
185184 440817 449
850344 62277 525
238856 166017 443
537438 266780 470
631786 452635 509
581184 499247 470
186413 608627 470
195714 970924 525
236541 945139 525
966699 154481 525
842884 929976 476
570131 192540 470
484369 849485 525
127524 484196 449
11490 215379 383
773246 220207 509
581660 382564 470
381472 640922 509
949763 349782 525
290475 262135 407
158810 662656 509
28868 154904 375
34224 937943 525
800232 612768 509
269813 100745 443
365100 702791 509
561902 557843 359
877394 460825 525
984536 215243 525
505016 766474 509
389856 549756 470
356277 17586 443
658809 497961 509
948064 1894 525
727354 78641 509
783362 540855 509
935969 19684 525
783941 885230 525
47294 68786 340
224173 957686 525
538317 150271 470
88744 496221 449
657343 901541 525
627008 956344 525
909359 864606 445
132940 884603 525
656295 776348 504
729564 73115 509
241403 418908 449
442497 100649 449
342614 332394 366
141012 858880 525
183994 481939 449
699703 699580 274
367716 614805 470
811285 732664 468
217477 562445 470
826887 527795 509
235988 297349 407
803977 450852 509
364661 845413 525
205478 576604 470
959822 103712 525
399324 325145 441
371159 566047 470
661081 805535 504
150475 216610 386
436098 428297 387
879233 99941 525
692456 898337 525
124062 158045 383
525395 745459 509
227572 700240 509
814661 476757 509
395501 912088 525
849903 25523 525
47915 519003 470
937838 170222 525
414852 189612 449
146604 384414 443
643236 484240 509
768341 715265 468
479358 298251 449
548253 601034 434
373211 219149 443
705602 272642 509
790657 967282 525
695353 950573 525
707070 107349 509
587997 908927 525
434397 33128 449
789516 228047 509
373074 83084 443
990542 435180 525
577510 455096 470
349673 925457 525
838278 679559 525
577226 878165 525
490263 901515 525
461768 467554 369
334625 763918 509
677392 376254 509
832448 692654 504
470317 905097 525
839067 297708 525
727142 26892 509
139122 468048 449
506741 483154 426
276401 594883 470
82812 917993 525
877687 836267 525
191529 395745 443
742706 465662 509
60102 733204 509
338744 886689 525
283628 358414 441
646898 387935 509
822259 432794 509
454209 645302 509
453613 506968 444
186006 595978 470
604407 419567 470
284354 373167 441
765078 739131 424
945349 882301 507
296363 166686 443
149823 484226 449
720434 81415 509
924284 396984 525
130860 509313 449
285859 599101 470
329591 671466 509
768249 682410 504
631562 782843 504
624582 798935 509
295417 938744 525
704740 411020 509
472487 851047 525
391047 292079 441
177631 356817 443
150075 51568 375
605161 508257 470
791048 167341 509
3167 796826 509
150996 280174 443
155635 574306 470
377211 496681 449
175171 930096 525
775800 678521 504
